What the Package Does (One Line, Title Case) • rbqmR
…
Number of (S)AEs reported per time unit of drug exposure

Time to respond to data queries

The Bayesian QTL framework implemented in rbqmR can easily be extended to include these other data types.

Events per unit time

We use data on the numbers of Prussian cavalry officers kicked to death by horses (Bortkiewicz 1898) to illustrate the method.

data("cavalryDeaths")

cavalryDeaths
#> # A tibble: 280 × 3
#>     Year Corps   Deaths
#>    <int> <fct>    <int>
#>  1  1875 Guards       0
#>  2  1875 Corps 1      0
#>  3  1875 Corps 2      0
#>  4  1875 Corps 3      0
#>  5  1875 Corps 4      0
#>  6  1875 Corps 5      0
#>  7  1875 Corps 6      0
#>  8  1875 Corps 7      1
#>  9  1875 Corps 8      1
#> 10  1875 Corps 9      0
#> # … with 270 more rows
…
